{
    "KPackageStructure": "KWin/Effect",
    "KPlugin": {
        "Authors": [
            {
                "Email": "mgraesslin@kde.org",
                "Name": "Martin Gräßlin",
                "Name[ar]": "مارتن جراجلين",
                "Name[be]": "Martin Gräßlin",
                "Name[bg]": "Martin Gräßlin",
                "Name[ca@valencia]": "Martin Gräßlin",
                "Name[ca]": "Martin Gräßlin",
                "Name[cs]": "Martin Gräßlin",
                "Name[de]": "Martin Gräßlin",
                "Name[en_GB]": "Martin Gräßlin",
                "Name[eo]": "Martin Gräßlin",
                "Name[es]": "Martin Gräßlin",
                "Name[et]": "Martin Gräßlin",
                "Name[eu]": "Martin Gräßlin",
                "Name[fi]": "Martin Gräßlin",
                "Name[fr]": "Martin Gräßlin",
                "Name[gl]": "Martin Gräßlin.",
                "Name[he]": "מרטין גרייסלין",
                "Name[ia]": "Martin Gräßlin",
                "Name[it]": "Martin Gräßlin",
                "Name[ja]": "Martin Gräßlin",
                "Name[ka]": "მარტინ გრესსლინი",
                "Name[ko]": "Martin Gräßlin",
                "Name[nl]": "Martin Gräßlin",
                "Name[nn]": "Martin Gräßlin",
                "Name[pl]": "Martin Gräßlin",
                "Name[pt]": "Martin Gräßlin",
                "Name[ru]": "Martin Gräßlin",
                "Name[sk]": "Martin Gräßlin",
                "Name[sl]": "Martin Gräßlin",
                "Name[ta]": "மார்ட்டின் கிராஸ்லின்",
                "Name[tr]": "Martin Gräßlin",
                "Name[uk]": "Martin Gräßlin",
                "Name[vi]": "Martin Gräßlin",
                "Name[x-test]": "xxMartin Gräßlinxx",
                "Name[zh_CN]": "Martin Gräßlin",
                "Name[zh_TW]": "Martin Gräßlin"
            }
        ],
        "Category": "Appearance",
        "Description": "Animation for a window going to and leaving full screen mode",
        "Description[ar]": "الرسوم المتحركة لنافذة تنتقل إلى وضع ملء الشاشة أوتغادرها",
        "Description[be]": "Анімацыя пераходу ў поўнаэкранны рэжым і выхаду з яго",
        "Description[bg]": "Анимация за прозорец при влизане и излизане от режим на цял екран",
        "Description[ca@valencia]": "Animació per a una finestra que entra o abandona el mode de pantalla completa",
        "Description[ca]": "Animació per a una finestra que entra o abandona el mode de pantalla completa",
        "Description[cs]": "Animace okna pro maximalizaci a ukončení maximalizace",
        "Description[de]": "Animation für ein Fenster beim Ein- und Ausschalten des Vollbildmodus",
        "Description[en_GB]": "Animation for a window going to and leaving full screen mode",
        "Description[eo]": "Animacio por fenestro iranta kaj forlasanta plenekranan reĝimon",
        "Description[es]": "Animación para la ventana que entra o sale del modo de pantalla completa",
        "Description[et]": "Täisekraanirežiimi mineva või sealt väljuva akna animatsioon",
        "Description[eu]": "Pantaila-osoko modutik/modura aldatzen den leiho baten animazioa",
        "Description[fi]": "Animointi ikkunan siirtyessä koko näytöllä tai poistuessa siitä",
        "Description[fr]": "Animation pour une fenêtre passant ou sortant du mode plein écran",
        "Description[gl]": "Animación para unha xanela que entra ou sae do modo a pantalla completa.",
        "Description[he]": "הנפשה לחלון שמוגדל או מוקטן למסך מלא או ממנו",
        "Description[ia]": "Animation per un fenestra va a e abandona modo de schermo plen",
        "Description[it]": "Animazione per una finestra che entra e esce dalla modalità a schermo intero",
        "Description[ja]": "フルスクリーンモードに入るときもしくは出るときのアニメーション",
        "Description[ka]": "ფანჯრის ანიმაცია სრულ ეკრანზე გასვლისას და სრული ეკრანიდან გამოსვლისას",
        "Description[ko]": "창이 전체 화면 모드로 진입하거나 벗어날 때 사용할 애니메이션",
        "Description[nl]": "Animatie voor een venster dat gaat naar volledig scherm en deze verlaat",
        "Description[nn]": "Animasjon for vindauge som går til eller frå fullskjermsmodus",
        "Description[pl]": "Animacja dla okna wchodzącego i wychodzącego z trybu pełnego ekranu",
        "Description[pt]": "Animação numa janela ao entrar ou sair do modo de ecrã completo",
        "Description[ru]": "Анимация для окна, которое будет переключено в полноэкранный режим или из него",
        "Description[sk]": "Animácia pre prechod a opustenie okna z režimu celej obrazovky",
        "Description[sl]": "Animacija za okno, ki vstopa v ali izstopa iz celozaslonskega načina",
        "Description[ta]": "சாளரம் முழுத்திரை முறையில் நுழைவதற்கும் அம்முறையிலிருந்து வெளியேறுவதற்குமான அசைவூட்டம்",
        "Description[tr]": "Tam ekran kipine giren ve çıkan pencere için canlandırma",
        "Description[uk]": "Анімація для вікон під час входу до повноекранного режиму і виходу з нього",
        "Description[vi]": "Hiệu ứng động cho một cửa sổ đang đi vào và rời khỏi chế độ toàn màn hình",
        "Description[x-test]": "xxAnimation for a window going to and leaving full screen modexx",
        "Description[zh_CN]": "窗口进入/退出全屏模式时呈现过渡动效",
        "Description[zh_TW]": "視窗進入或離開全螢幕的動畫",
        "EnabledByDefault": true,
        "Icon": "preferences-system-windows-effect-fullscreen",
        "Id": "fullscreen",
        "License": "GPL",
        "Name": "Full Screen",
        "Name[ar]": "ملء الشاشة",
        "Name[be]": "На ўвесь экран",
        "Name[bg]": "Цял екран",
        "Name[ca@valencia]": "Pantalla completa",
        "Name[ca]": "Pantalla completa",
        "Name[cs]": "Celá obrazovka",
        "Name[de]": "Vollbild",
        "Name[en_GB]": "Full Screen",
        "Name[eo]": "Plenekrane",
        "Name[es]": "Pantalla completa",
        "Name[et]": "Täisekraan",
        "Name[eu]": "Pantaila-betea",
        "Name[fi]": "Koko näyttö",
        "Name[fr]": "Plein écran",
        "Name[gl]": "Pantalla completa",
        "Name[he]": "מסך מלא",
        "Name[ia]": "Schermo plen",
        "Name[it]": "Schermo intero",
        "Name[ja]": "フルスクリーン",
        "Name[ka]": "სრულეკრანიანი რეჟიმი",
        "Name[ko]": "전체 화면",
        "Name[nl]": "Volledig scherm",
        "Name[nn]": "Fullskjerm",
        "Name[pl]": "Pełny ekran",
        "Name[pt]": "Ecrã Completo",
        "Name[pt_BR]": "Tela inteira",
        "Name[ru]": "Полноэкранный режим",
        "Name[sk]": "Celá obrazovka",
        "Name[sl]": "Celozaslonski način",
        "Name[ta]": "முழுத்திரை",
        "Name[tr]": "Tam Ekran",
        "Name[uk]": "Повноекранний режим",
        "Name[vi]": "Toàn màn hình",
        "Name[x-test]": "xxFull Screenxx",
        "Name[zh_CN]": "全屏模式过渡动画",
        "Name[zh_TW]": "全螢幕"
    },
    "X-KDE-Ordering": 60,
    "X-Plasma-API": "javascript"
}
